{
  "db_name": "SQLite",
  "query": "UPDATE lorries SET priority = ? WHERE path = ?",
  "describe": {
    "columns": [],
    "parameters": {
      "Right": 2
    },
    "nullable": []
  },
  "hash": "449b0a972fdb4664ced7e9032198437ea736475a17f9f67bde2fc2f7c89c907c"
}
